{
  "food": [
    {
      "id": 1,
      "name": "Bún Bò Huế",
      "price": "65000",
      "imageURL": "http://product.hstatic.net/1000205756/product/bun-bo-hue_c53c0d359aac47e8b758000462db99ee_master.png",
      "restaurantID": 1
    },
    {
      "id": 2,
      "name": "Bánh Bèo",
      "price": "50000",
      "imageURL": "http://product.hstatic.net/1000205756/product/banh-beo_master.png",
      "restaurantID": 1
    },
    {
      "id": 3,
      "name": "Cơm Âm Phủ",
      "price": "60000",
      "imageURL": "http://product.hstatic.net/1000205756/product/com-am-phu_7fa6ce630d5443968de52bc93a9041e8_master.png",
      "restaurantID": 1
    }
  ]
}